dubug/modelsim/waveform/apb_timer.vcd
$date
	Sat Sep 17 22:00:56 2022
$end
$version
	ModelSim Version 10.7
$end
$timescale
	1ns
$end

$scope module tb_apb_timer $end
$var parameter 32 ! CLK_HALF_PER $end
$var parameter 32 " AW $end
$var parameter 32 # DW $end
$var parameter 5 $ TIMERA_VAL $end
$var parameter 5 % TIMERA_CMP $end
$var parameter 5 & TIMERA_CFG $end
$var parameter 5 ' TIMERA_TIC $end
$var parameter 5 ( TIMERB_VAL $end
$var parameter 5 ) TIMERB_CMP $end
$var parameter 5 * TIMERB_CFG $end
$var parameter 5 + TIMERB_TIC $end
$var reg 1 , clk $end
$var reg 1 - rst $end
$var reg 5 . paddr [4:0] $end
$var reg 1 / pwrite $end
$var reg 1 0 psel $end
$var reg 1 1 penable $end
$var reg 32 2 pwdata [31:0] $end
$var wire 1 3 prdata [31] $end
$var wire 1 4 prdata [30] $end
$var wire 1 5 prdata [29] $end
$var wire 1 6 prdata [28] $end
$var wire 1 7 prdata [27] $end
$var wire 1 8 prdata [26] $end
$var wire 1 9 prdata [25] $end
$var wire 1 : prdata [24] $end
$var wire 1 ; prdata [23] $end
$var wire 1 < prdata [22] $end
$var wire 1 = prdata [21] $end
$var wire 1 > prdata [20] $end
$var wire 1 ? prdata [19] $end
$var wire 1 @ prdata [18] $end
$var wire 1 A prdata [17] $end
$var wire 1 B prdata [16] $end
$var wire 1 C prdata [15] $end
$var wire 1 D prdata [14] $end
$var wire 1 E prdata [13] $end
$var wire 1 F prdata [12] $end
$var wire 1 G prdata [11] $end
$var wire 1 H prdata [10] $end
$var wire 1 I prdata [9] $end
$var wire 1 J prdata [8] $end
$var wire 1 K prdata [7] $end
$var wire 1 L prdata [6] $end
$var wire 1 M prdata [5] $end
$var wire 1 N prdata [4] $end
$var wire 1 O prdata [3] $end
$var wire 1 P prdata [2] $end
$var wire 1 Q prdata [1] $end
$var wire 1 R prdata [0] $end
$var wire 1 S pready $end
$var wire 1 3 prdata [31] $end
$var wire 1 4 prdata [30] $end
$var wire 1 5 prdata [29] $end
$var wire 1 6 prdata [28] $end
$var wire 1 7 prdata [27] $end
$var wire 1 8 prdata [26] $end
$var wire 1 9 prdata [25] $end
$var wire 1 : prdata [24] $end
$var wire 1 ; prdata [23] $end
$var wire 1 < prdata [22] $end
$var wire 1 = prdata [21] $end
$var wire 1 > prdata [20] $end
$var wire 1 ? prdata [19] $end
$var wire 1 @ prdata [18] $end
$var wire 1 A prdata [17] $end
$var wire 1 B prdata [16] $end
$var wire 1 C prdata [15] $end
$var wire 1 D prdata [14] $end
$var wire 1 E prdata [13] $end
$var wire 1 F prdata [12] $end
$var wire 1 G prdata [11] $end
$var wire 1 H prdata [10] $end
$var wire 1 I prdata [9] $end
$var wire 1 J prdata [8] $end
$var wire 1 K prdata [7] $end
$var wire 1 L prdata [6] $end
$var wire 1 M prdata [5] $end
$var wire 1 N prdata [4] $end
$var wire 1 O prdata [3] $end
$var wire 1 P prdata [2] $end
$var wire 1 Q prdata [1] $end
$var wire 1 R prdata [0] $end
$var wire 1 S pready $end

$scope task APB_WRITE $end
$var reg 5 T addr [4:0] $end
$var reg 32 U wdata [31:0] $end
$upscope $end

$scope task APB_READ $end
$var reg 5 V addr [4:0] $end
$upscope $end

$scope module U_apb_timer_0 $end
$var parameter 5 W TIMERA_VAL $end
$var parameter 5 X TIMERA_CMP $end
$var parameter 5 Y TIMERA_CFG $end
$var parameter 5 Z TIMERA_TIC $end
$var parameter 5 [ TIMERB_VAL $end
$var parameter 5 \ TIMERB_CMP $end
$var parameter 5 ] TIMERB_CFG $end
$var parameter 5 ^ TIMERB_TIC $end
$var wire 1 _ clk_i $end
$var wire 1 ` rst_i $end
$var wire 1 a apb_paddr_s [4] $end
$var wire 1 b apb_paddr_s [3] $end
$var wire 1 c apb_paddr_s [2] $end
$var wire 1 d apb_paddr_s [1] $end
$var wire 1 e apb_paddr_s [0] $end
$var wire 1 f apb_pwrite_s $end
$var wire 1 g apb_psel_s $end
$var wire 1 h apb_penable_s $end
$var wire 1 i apb_pwdata_s [31] $end
$var wire 1 j apb_pwdata_s [30] $end
$var wire 1 k apb_pwdata_s [29] $end
$var wire 1 l apb_pwdata_s [28] $end
$var wire 1 m apb_pwdata_s [27] $end
$var wire 1 n apb_pwdata_s [26] $end
$var wire 1 o apb_pwdata_s [25] $end
$var wire 1 p apb_pwdata_s [24] $end
$var wire 1 q apb_pwdata_s [23] $end
$var wire 1 r apb_pwdata_s [22] $end
$var wire 1 s apb_pwdata_s [21] $end
$var wire 1 t apb_pwdata_s [20] $end
$var wire 1 u apb_pwdata_s [19] $end
$var wire 1 v apb_pwdata_s [18] $end
$var wire 1 w apb_pwdata_s [17] $end
$var wire 1 x apb_pwdata_s [16] $end
$var wire 1 y apb_pwdata_s [15] $end
$var wire 1 z apb_pwdata_s [14] $end
$var wire 1 { apb_pwdata_s [13] $end
$var wire 1 | apb_pwdata_s [12] $end
$var wire 1 } apb_pwdata_s [11] $end
$var wire 1 ~ apb_pwdata_s [10] $end
$var wire 1 !! apb_pwdata_s [9] $end
$var wire 1 "! apb_pwdata_s [8] $end
$var wire 1 #! apb_pwdata_s [7] $end
$var wire 1 $! apb_pwdata_s [6] $end
$var wire 1 %! apb_pwdata_s [5] $end
$var wire 1 &! apb_pwdata_s [4] $end
$var wire 1 '! apb_pwdata_s [3] $end
$var wire 1 (! apb_pwdata_s [2] $end
$var wire 1 )! apb_pwdata_s [1] $end
$var wire 1 *! apb_pwdata_s [0] $end
$var reg 32 +! apb_prdata_s [31:0] $end
$var reg 1 ,! apb_pready_s $end
$var reg 1 -! timer_a_clr $end
$var reg 1 .! timer_a_ena $end
$var reg 32 /! timer_a_cmp [31:0] $end
$var wire 1 0! timer_a_val [31] $end
$var wire 1 1! timer_a_val [30] $end
$var wire 1 2! timer_a_val [29] $end
$var wire 1 3! timer_a_val [28] $end
$var wire 1 4! timer_a_val [27] $end
$var wire 1 5! timer_a_val [26] $end
$var wire 1 6! timer_a_val [25] $end
$var wire 1 7! timer_a_val [24] $end
$var wire 1 8! timer_a_val [23] $end
$var wire 1 9! timer_a_val [22] $end
$var wire 1 :! timer_a_val [21] $end
$var wire 1 ;! timer_a_val [20] $end
$var wire 1 <! timer_a_val [19] $end
$var wire 1 =! timer_a_val [18] $end
$var wire 1 >! timer_a_val [17] $end
$var wire 1 ?! timer_a_val [16] $end
$var wire 1 @! timer_a_val [15] $end
$var wire 1 A! timer_a_val [14] $end
$var wire 1 B! timer_a_val [13] $end
$var wire 1 C! timer_a_val [12] $end
$var wire 1 D! timer_a_val [11] $end
$var wire 1 E! timer_a_val [10] $end
$var wire 1 F! timer_a_val [9] $end
$var wire 1 G! timer_a_val [8] $end
$var wire 1 H! timer_a_val [7] $end
$var wire 1 I! timer_a_val [6] $end
$var wire 1 J! timer_a_val [5] $end
$var wire 1 K! timer_a_val [4] $end
$var wire 1 L! timer_a_val [3] $end
$var wire 1 M! timer_a_val [2] $end
$var wire 1 N! timer_a_val [1] $end
$var wire 1 O! timer_a_val [0] $end
$var wire 1 P! timer_a_tick $end
$var reg 1 Q! timer_b_clr $end
$var reg 1 R! timer_b_ena $end
$var reg 32 S! timer_b_cmp [31:0] $end
$var wire 1 T! timer_b_val [31] $end
$var wire 1 U! timer_b_val [30] $end
$var wire 1 V! timer_b_val [29] $end
$var wire 1 W! timer_b_val [28] $end
$var wire 1 X! timer_b_val [27] $end
$var wire 1 Y! timer_b_val [26] $end
$var wire 1 Z! timer_b_val [25] $end
$var wire 1 [! timer_b_val [24] $end
$var wire 1 \! timer_b_val [23] $end
$var wire 1 ]! timer_b_val [22] $end
$var wire 1 ^! timer_b_val [21] $end
$var wire 1 _! timer_b_val [20] $end
$var wire 1 `! timer_b_val [19] $end
$var wire 1 a! timer_b_val [18] $end
$var wire 1 b! timer_b_val [17] $end
$var wire 1 c! timer_b_val [16] $end
$var wire 1 d! timer_b_val [15] $end
$var wire 1 e! timer_b_val [14] $end
$var wire 1 f! timer_b_val [13] $end
$var wire 1 g! timer_b_val [12] $end
$var wire 1 h! timer_b_val [11] $end
$var wire 1 i! timer_b_val [10] $end
$var wire 1 j! timer_b_val [9] $end
$var wire 1 k! timer_b_val [8] $end
$var wire 1 l! timer_b_val [7] $end
$var wire 1 m! timer_b_val [6] $end
$var wire 1 n! timer_b_val [5] $end
$var wire 1 o! timer_b_val [4] $end
$var wire 1 p! timer_b_val [3] $end
$var wire 1 q! timer_b_val [2] $end
$var wire 1 r! timer_b_val [1] $end
$var wire 1 s! timer_b_val [0] $end
$var wire 1 t! timer_b_tick $end

$scope module U_timer_A $end
$var wire 1 _ clk_i $end
$var wire 1 ` rst_i $end
$var wire 1 u! clr_i $end
$var wire 1 v! ena_i $end
$var wire 1 w! cmp_value_i [31] $end
$var wire 1 x! cmp_value_i [30] $end
$var wire 1 y! cmp_value_i [29] $end
$var wire 1 z! cmp_value_i [28] $end
$var wire 1 {! cmp_value_i [27] $end
$var wire 1 |! cmp_value_i [26] $end
$var wire 1 }! cmp_value_i [25] $end
$var wire 1 ~! cmp_value_i [24] $end
$var wire 1 !" cmp_value_i [23] $end
$var wire 1 "" cmp_value_i [22] $end
$var wire 1 #" cmp_value_i [21] $end
$var wire 1 $" cmp_value_i [20] $end
$var wire 1 %" cmp_value_i [19] $end
$var wire 1 &" cmp_value_i [18] $end
$var wire 1 '" cmp_value_i [17] $end
$var wire 1 (" cmp_value_i [16] $end
$var wire 1 )" cmp_value_i [15] $end
$var wire 1 *" cmp_value_i [14] $end
$var wire 1 +" cmp_value_i [13] $end
$var wire 1 ," cmp_value_i [12] $end
$var wire 1 -" cmp_value_i [11] $end
$var wire 1 ." cmp_value_i [10] $end
$var wire 1 /" cmp_value_i [9] $end
$var wire 1 0" cmp_value_i [8] $end
$var wire 1 1" cmp_value_i [7] $end
$var wire 1 2" cmp_value_i [6] $end
$var wire 1 3" cmp_value_i [5] $end
$var wire 1 4" cmp_value_i [4] $end
$var wire 1 5" cmp_value_i [3] $end
$var wire 1 6" cmp_value_i [2] $end
$var wire 1 7" cmp_value_i [1] $end
$var wire 1 8" cmp_value_i [0] $end
$var reg 32 9" value_o [31:0] $end
$var reg 1 :" tick_o $end
$upscope $end

$scope module U_timer_B $end
$var wire 1 _ clk_i $end
$var wire 1 ` rst_i $end
$var wire 1 ;" clr_i $end
$var wire 1 <" ena_i $end
$var wire 1 =" cmp_value_i [31] $end
$var wire 1 >" cmp_value_i [30] $end
$var wire 1 ?" cmp_value_i [29] $end
$var wire 1 @" cmp_value_i [28] $end
$var wire 1 A" cmp_value_i [27] $end
$var wire 1 B" cmp_value_i [26] $end
$var wire 1 C" cmp_value_i [25] $end
$var wire 1 D" cmp_value_i [24] $end
$var wire 1 E" cmp_value_i [23] $end
$var wire 1 F" cmp_value_i [22] $end
$var wire 1 G" cmp_value_i [21] $end
$var wire 1 H" cmp_value_i [20] $end
$var wire 1 I" cmp_value_i [19] $end
$var wire 1 J" cmp_value_i [18] $end
$var wire 1 K" cmp_value_i [17] $end
$var wire 1 L" cmp_value_i [16] $end
$var wire 1 M" cmp_value_i [15] $end
$var wire 1 N" cmp_value_i [14] $end
$var wire 1 O" cmp_value_i [13] $end
$var wire 1 P" cmp_value_i [12] $end
$var wire 1 Q" cmp_value_i [11] $end
$var wire 1 R" cmp_value_i [10] $end
$var wire 1 S" cmp_value_i [9] $end
$var wire 1 T" cmp_value_i [8] $end
$var wire 1 U" cmp_value_i [7] $end
$var wire 1 V" cmp_value_i [6] $end
$var wire 1 W" cmp_value_i [5] $end
$var wire 1 X" cmp_value_i [4] $end
$var wire 1 Y" cmp_value_i [3] $end
$var wire 1 Z" cmp_value_i [2] $end
$var wire 1 [" cmp_value_i [1] $end
$var wire 1 \" cmp_value_i [0] $end
$var reg 32 ]" value_o [31:0] $end
$var reg 1 ^" tick_o $end
$upscope $end
$upscope $end
$upscope $end
$enddefinitions $end
#0
$dumpvars
0,
1-
bx .
x/
x0
x1
bx 2
bx T
bx U
bx V
b0 +!
0,!
1-!
0.!
b11111111111111111111111111111111 /!
1Q!
0R!
b11111111111111111111111111111111 S!
b0 9"
0:"
b0 ]"
0^"
b101 !
b101 "
b100000 #
b0 $
b100 %
b1000 &
b1100 '
b10000 (
b10100 )
b11000 *
b11100 +
b0 W
b100 X
b1000 Y
b1100 Z
b10000 [
b10100 \
b11000 ]
b11100 ^
0R
0Q
0P
0O
0N
0M
0L
0K
0J
0I
0H
0G
0F
0E
0D
0C
0B
0A
0@
0?
0>
0=
0<
0;
0:
09
08
07
06
05
04
03
0S
0O!
0N!
0M!
0L!
0K!
0J!
0I!
0H!
0G!
0F!
0E!
0D!
0C!
0B!
0A!
0@!
0?!
0>!
0=!
0<!
0;!
0:!
09!
08!
07!
06!
05!
04!
03!
02!
01!
00!
0P!
0s!
0r!
0q!
0p!
0o!
0n!
0m!
0l!
0k!
0j!
0i!
0h!
0g!
0f!
0e!
0d!
0c!
0b!
0a!
0`!
0_!
0^!
0]!
0\!
0[!
0Z!
0Y!
0X!
0W!
0V!
0U!
0T!
0t!
x*!
x)!
x(!
x'!
x&!
x%!
x$!
x#!
x"!
x!!
x~
x}
x|
x{
xz
xy
xx
xw
xv
xu
xt
xs
xr
xq
xp
xo
xn
xm
xl
xk
xj
xi
xh
xg
xf
xe
xd
xc
xb
xa
1`
0_
1\"
1["
1Z"
1Y"
1X"
1W"
1V"
1U"
1T"
1S"
1R"
1Q"
1P"
1O"
1N"
1M"
1L"
1K"
1J"
1I"
1H"
1G"
1F"
1E"
1D"
1C"
1B"
1A"
1@"
1?"
1>"
1="
0<"
1;"
18"
17"
16"
15"
14"
13"
12"
11"
10"
1/"
1."
1-"
1,"
1+"
1*"
1)"
1("
1'"
1&"
1%"
1$"
1#"
1""
1!"
1~!
1}!
1|!
1{!
1z!
1y!
1x!
1w!
0v!
1u!
$end
#5
1,
1_
#10
0,
0_
#15
1,
1_
#20
0,
0_
#25
1,
1_
0-
0`
b100 T
b101111 U
00
01
1/
b100 .
b101111 2
0g
0h
1f
1*!
1)!
1(!
1'!
0&!
1%!
0$!
0#!
0"!
0!!
0~
0}
0|
0{
0z
0y
0x
0w
0v
0u
0t
0s
0r
0q
0p
0o
0n
0m
0l
0k
0j
0i
0e
0d
1c
0b
0a
#30
0,
0_
#35
1,
1_
10
1g
#40
0,
0_
#45
1,
1_
11
1h
b101111 /!
1,!
04"
02"
01"
00"
0/"
0."
0-"
0,"
0+"
0*"
0)"
0("
0'"
0&"
0%"
0$"
0#"
0""
0!"
0~!
0}!
0|!
0{!
0z!
0y!
0x!
0w!
1S
#50
0,
0_
#55
1,
1_
01
00
0/
b1000 T
b1 U
1/
b1000 .
b1 2
0h
0g
0)!
0(!
0'!
0%!
0c
1b
0,!
0S
#60
0,
0_
#65
1,
1_
10
1g
#70
0,
0_
#75
1,
1_
11
1h
0-!
1.!
1,!
0u!
1v!
1S
#80
0,
0_
#85
1,
1_
01
00
0/
b1100 V
b1100 .
0h
0g
0f
1c
b1 9"
0,!
1O!
0S
#90
0,
0_
#95
1,
1_
10
1g
b10 9"
0O!
1N!
#100
0,
0_
#105
1,
1_
11
1h
b11 9"
1,!
1O!
1S
#110
0,
0_
#115
1,
1_
01
00
0h
0g
b100 9"
0,!
0O!
0N!
1M!
0S
#120
0,
0_
#125
1,
1_
10
1g
b101 9"
1O!
#130
0,
0_
#135
1,
1_
11
1h
b110 9"
1,!
0O!
1N!
1S
#140
0,
0_
#145
1,
1_
01
00
0h
0g
b111 9"
0,!
1O!
0S
#150
0,
0_
#155
1,
1_
10
1g
b1000 9"
0O!
0N!
0M!
1L!
#160
0,
0_
#165
1,
1_
11
1h
b1001 9"
1,!
1O!
1S
#170
0,
0_
#175
1,
1_
01
00
0h
0g
b1010 9"
0,!
0O!
1N!
0S
#180
0,
0_
#185
1,
1_
10
1g
b1011 9"
1O!
#190
0,
0_
#195
1,
1_
11
1h
b1100 9"
1,!
0O!
0N!
1M!
1S
#200
0,
0_
#205
1,
1_
01
00
0h
0g
b1101 9"
0,!
1O!
0S
#210
0,
0_
#215
1,
1_
10
1g
b1110 9"
0O!
1N!
#220
0,
0_
#225
1,
1_
11
1h
b1111 9"
1,!
1O!
1S
#230
0,
0_
#235
1,
1_
01
00
0h
0g
b10000 9"
0,!
0O!
0N!
0M!
0L!
1K!
0S
#240
0,
0_
#245
1,
1_
10
1g
b10001 9"
1O!
#250
0,
0_
#255
1,
1_
11
1h
b10010 9"
1,!
0O!
1N!
1S
#260
0,
0_
#265
1,
1_
01
00
0h
0g
b10011 9"
0,!
1O!
0S
#270
0,
0_
#275
1,
1_
10
1g
b10100 9"
0O!
0N!
1M!
#280
0,
0_
#285
1,
1_
11
1h
b10101 9"
1,!
1O!
1S
#290
0,
0_
#295
1,
1_
01
00
0h
0g
b10110 9"
0,!
0O!
1N!
0S
#300
0,
0_
#305
1,
1_
10
1g
b10111 9"
1O!
#310
0,
0_
#315
1,
1_
11
1h
b11000 9"
1,!
0O!
0N!
0M!
1L!
1S
#320
0,
0_
#325
1,
1_
01
00
0h
0g
b11001 9"
0,!
1O!
0S
#330
0,
0_
#335
1,
1_
10
1g
b11010 9"
0O!
1N!
#340
0,
0_
#345
1,
1_
11
1h
b11011 9"
1,!
1O!
1S
#350
0,
0_
#355
1,
1_
01
00
0h
0g
b11100 9"
0,!
0O!
0N!
1M!
0S
#360
0,
0_
#365
1,
1_
10
1g
b11101 9"
1O!
#370
0,
0_
#375
1,
1_
11
1h
b11110 9"
1,!
0O!
1N!
1S
#380
0,
0_
#385
1,
1_
01
00
0h
0g
b11111 9"
0,!
1O!
0S
#390
0,
0_
#395
1,
1_
10
1g
b100000 9"
0O!
0N!
0M!
0L!
0K!
1J!
#400
0,
0_
#405
1,
1_
11
1h
b100001 9"
1,!
1O!
1S
#410
0,
0_
#415
1,
1_
01
00
0h
0g
b100010 9"
0,!
0O!
1N!
0S
#420
0,
0_
#425
1,
1_
10
1g
b100011 9"
1O!
#430
0,
0_
#435
1,
1_
11
1h
b100100 9"
1,!
0O!
0N!
1M!
1S
#440
0,
0_
#445
1,
1_
01
00
0h
0g
b100101 9"
0,!
1O!
0S
#450
0,
0_
#455
1,
1_
10
1g
b100110 9"
0O!
1N!
#460
0,
0_
#465
1,
1_
11
1h
b100111 9"
1,!
1O!
1S
#470
0,
0_
#475
1,
1_
01
00
0h
0g
b101000 9"
0,!
0O!
0N!
0M!
1L!
0S
#480
0,
0_
#485
1,
1_
10
1g
b101001 9"
1O!
#490
0,
0_
#495
1,
1_
11
1h
b101010 9"
1,!
0O!
1N!
1S
#500
0,
0_
#505
1,
1_
01
00
0h
0g
b101011 9"
0,!
1O!
0S
#510
0,
0_
#515
1,
1_
10
1g
b101100 9"
0O!
0N!
1M!
#520
0,
0_
#525
1,
1_
11
1h
b101101 9"
1,!
1O!
1S
#530
0,
0_
#535
1,
1_
01
00
0h
0g
b101110 9"
0,!
0O!
1N!
0S
#540
0,
0_
#545
1,
1_
10
1g
b101111 9"
1O!
#550
0,
0_
#555
1,
1_
11
1h
b110000 9"
1:"
1,!
0O!
0N!
0M!
0L!
1K!
1P!
1S
#560
0,
0_
#565
1,
1_
01
00
0h
0g
b1 +!
b110001 9"
0,!
1O!
1R
0S
#570
0,
0_
#575
1,
1_
10
1g
b110010 9"
0O!
1N!
#580
0,
0_
#585
1,
1_
11
1h
b110011 9"
1,!
1O!
1S
#590
0,
0_
#595
1,
1_
01
00
b11 U
1/
b1000 .
b11 2
0h
0g
1f
1)!
0c
b110100 9"
0,!
0O!
0N!
1M!
0S
#600
0,
0_
#605
1,
1_
10
1g
b110101 9"
1O!
#610
0,
0_
#615
1,
1_
11
1h
b110110 9"
1-!
1,!
0O!
1N!
1u!
1S
#620
0,
0_
#625
1,
1_
01
00
0/
0h
0g
0f
b0 9"
0:"
0,!
0N!
0M!
0K!
0J!
0P!
0S
