dubug/modelsim/waveform/tb_program_table.vcd
$date
	Sat Sep 24 21:46:09 2022
$end
$version
	ModelSim Version 10.7
$end
$timescale
	1ns
$end

$scope module tb_program_table $end
$var parameter 32 ! CLK_HALF_PER $end
$var parameter 32 " MAX_COUNTER_VALUE $end
$var parameter 32 # TOKEN_TABLE_ENTRY $end
$var parameter 32 $ PROGRAM_TABLE_ENTRY $end
$var reg 1 % clk $end
$var reg 1 & rst_n $end
$var wire 1 ' program_id_rdy_o $end
$var reg 1 ( program_id_vld_i $end
$var reg 2 ) program_id_payload_i [1:0] $end
$var reg 1 * program_id_triggerd_i $end
$var wire 1 + program_value_o [4] $end
$var wire 1 , program_value_o [3] $end
$var wire 1 - program_value_o [2] $end
$var wire 1 . program_value_o [1] $end
$var wire 1 / program_value_o [0] $end
$var wire 1 0 progress_value_o [4] $end
$var wire 1 1 progress_value_o [3] $end
$var wire 1 2 progress_value_o [2] $end
$var wire 1 3 progress_value_o [1] $end
$var wire 1 4 progress_value_o [0] $end
$var reg 2 5 program_cfg_id_i [1:0] $end
$var reg 1 6 program_cfg_vld_i $end
$var reg 5 7 program_cfg_counter_value_i [4:0] $end
$var reg 5 8 program_cfg_progress_value_i [4:0] $end
$var reg 8 9 program_cfg_picsize_i [7:0] $end
$var reg 4 : program_cfg_mode_i [3:0] $end
$var reg 1 ; program_cfg_padding_i $end
$var reg 1 < word2bit_trans_done_i $end
$var reg 1 = word2bit_packet_received_i $end
$var wire 1 > inbuf_pic_size_o [7] $end
$var wire 1 ? inbuf_pic_size_o [6] $end
$var wire 1 @ inbuf_pic_size_o [5] $end
$var wire 1 A inbuf_pic_size_o [4] $end
$var wire 1 B inbuf_pic_size_o [3] $end
$var wire 1 C inbuf_pic_size_o [2] $end
$var wire 1 D inbuf_pic_size_o [1] $end
$var wire 1 E inbuf_pic_size_o [0] $end
$var wire 1 F inbuf_mode_o [3] $end
$var wire 1 G inbuf_mode_o [2] $end
$var wire 1 H inbuf_mode_o [1] $end
$var wire 1 I inbuf_mode_o [0] $end
$var wire 1 J inbuf_padding_o $end
$var wire 1 K inbuf_sop_o $end
$var wire 1 L inbuf_hsync_o $end
$var wire 1 M inbuf_cmd_vld_o $end
$var reg 1 N inbuf_cmd_rdy_i $end
$var reg 1 O inbuf_din_rdy_i $end
$var wire 1 P word2bit_bitpar_rdy_o $end
$var reg 1 Q cfg_done $end
$var integer 32 R i $end
$var integer 32 S j $end
$var wire 1 ' program_id_rdy_o $end
$var wire 1 + program_value_o [4] $end
$var wire 1 , program_value_o [3] $end
$var wire 1 - program_value_o [2] $end
$var wire 1 . program_value_o [1] $end
$var wire 1 / program_value_o [0] $end
$var wire 1 0 progress_value_o [4] $end
$var wire 1 1 progress_value_o [3] $end
$var wire 1 2 progress_value_o [2] $end
$var wire 1 3 progress_value_o [1] $end
$var wire 1 4 progress_value_o [0] $end
$var wire 1 > inbuf_pic_size_o [7] $end
$var wire 1 ? inbuf_pic_size_o [6] $end
$var wire 1 @ inbuf_pic_size_o [5] $end
$var wire 1 A inbuf_pic_size_o [4] $end
$var wire 1 B inbuf_pic_size_o [3] $end
$var wire 1 C inbuf_pic_size_o [2] $end
$var wire 1 D inbuf_pic_size_o [1] $end
$var wire 1 E inbuf_pic_size_o [0] $end
$var wire 1 F inbuf_mode_o [3] $end
$var wire 1 G inbuf_mode_o [2] $end
$var wire 1 H inbuf_mode_o [1] $end
$var wire 1 I inbuf_mode_o [0] $end
$var wire 1 J inbuf_padding_o $end
$var wire 1 K inbuf_sop_o $end
$var wire 1 L inbuf_hsync_o $end
$var wire 1 M inbuf_cmd_vld_o $end
$var wire 1 P word2bit_bitpar_rdy_o $end

$scope module dut $end
$var parameter 32 T MAX_COUNTER_VALUE $end
$var parameter 32 U PROGRAM_TABLE_ENTRY $end
$var parameter 32 V PROGRAM_TABLE_WIDTH $end
$var parameter 3 W IDLE $end
$var parameter 3 X FETCH $end
$var parameter 3 Y UPDATE $end
$var parameter 3 Z BROAD_SOP $end
$var parameter 3 [ BROAD_DATA $end
$var parameter 3 \ BROAD_HSYNC $end
$var parameter 3 ] BROAD_CMD $end
$var parameter 1 ^ USE_PADDING $end
$var wire 1 _ clk_i $end
$var wire 1 ` rst_n_i $end
$var reg 1 a program_id_rdy_o $end
$var wire 1 b program_id_vld_i $end
$var wire 1 c program_id_payload_i [1] $end
$var wire 1 d program_id_payload_i [0] $end
$var wire 1 e program_id_triggerd_i $end
$var wire 1 + program_value_o [4] $end
$var wire 1 , program_value_o [3] $end
$var wire 1 - program_value_o [2] $end
$var wire 1 . program_value_o [1] $end
$var wire 1 / program_value_o [0] $end
$var wire 1 0 progress_value_o [4] $end
$var wire 1 1 progress_value_o [3] $end
$var wire 1 2 progress_value_o [2] $end
$var wire 1 3 progress_value_o [1] $end
$var wire 1 4 progress_value_o [0] $end
$var wire 1 f program_cfg_id_i [1] $end
$var wire 1 g program_cfg_id_i [0] $end
$var wire 1 h program_cfg_vld_i $end
$var wire 1 i program_cfg_counter_value_i [4] $end
$var wire 1 j program_cfg_counter_value_i [3] $end
$var wire 1 k program_cfg_counter_value_i [2] $end
$var wire 1 l program_cfg_counter_value_i [1] $end
$var wire 1 m program_cfg_counter_value_i [0] $end
$var wire 1 n program_cfg_progress_value_i [4] $end
$var wire 1 o program_cfg_progress_value_i [3] $end
$var wire 1 p program_cfg_progress_value_i [2] $end
$var wire 1 q program_cfg_progress_value_i [1] $end
$var wire 1 r program_cfg_progress_value_i [0] $end
$var wire 1 s program_cfg_picsize_i [7] $end
$var wire 1 t program_cfg_picsize_i [6] $end
$var wire 1 u program_cfg_picsize_i [5] $end
$var wire 1 v program_cfg_picsize_i [4] $end
$var wire 1 w program_cfg_picsize_i [3] $end
$var wire 1 x program_cfg_picsize_i [2] $end
$var wire 1 y program_cfg_picsize_i [1] $end
$var wire 1 z program_cfg_picsize_i [0] $end
$var wire 1 { program_cfg_mode_i [3] $end
$var wire 1 | program_cfg_mode_i [2] $end
$var wire 1 } program_cfg_mode_i [1] $end
$var wire 1 ~ program_cfg_mode_i [0] $end
$var wire 1 !! program_cfg_padding_i $end
$var wire 1 "! word2bit_trans_done_i $end
$var wire 1 #! word2bit_packet_received_i $end
$var wire 1 > inbuf_pic_size_o [7] $end
$var wire 1 ? inbuf_pic_size_o [6] $end
$var wire 1 @ inbuf_pic_size_o [5] $end
$var wire 1 A inbuf_pic_size_o [4] $end
$var wire 1 B inbuf_pic_size_o [3] $end
$var wire 1 C inbuf_pic_size_o [2] $end
$var wire 1 D inbuf_pic_size_o [1] $end
$var wire 1 E inbuf_pic_size_o [0] $end
$var wire 1 F inbuf_mode_o [3] $end
$var wire 1 G inbuf_mode_o [2] $end
$var wire 1 H inbuf_mode_o [1] $end
$var wire 1 I inbuf_mode_o [0] $end
$var wire 1 J inbuf_padding_o $end
$var wire 1 K inbuf_sop_o $end
$var wire 1 L inbuf_hsync_o $end
$var reg 1 $! inbuf_cmd_vld_o $end
$var wire 1 %! inbuf_cmd_rdy_i $end
$var wire 1 &! inbuf_din_rdy_i $end
$var wire 1 P word2bit_bitpar_rdy_o $end
$var wire 1 '! program_id_fire $end
$var wire 1 (! inbuf_cmd_fire $end
$var reg 1 )! skip_entry_update $end
$var reg 2 *! current_program [1:0] $end
$var reg 1 +! current_program_trigger $end
$var reg 1 ,! program_locked $end
$var reg 1 -! update_value_vld $end
$var reg 1 .! update_value_vld_d1 $end
$var reg 5 /! program_value [4:0] $end
$var reg 5 0! program_value_init [4:0] $end
$var reg 5 1! progress_value [4:0] $end
$var reg 5 2! progress_value_init [4:0] $end
$var reg 8 3! inbuf_pic_size [7:0] $end
$var reg 4 4! inbuf_mode [3:0] $end
$var reg 1 5! inbuf_padding $end
$var wire 1 6! program_table_entry [33] $end
$var wire 1 7! program_table_entry [32] $end
$var wire 1 8! program_table_entry [31] $end
$var wire 1 9! program_table_entry [30] $end
$var wire 1 :! program_table_entry [29] $end
$var wire 1 ;! program_table_entry [28] $end
$var wire 1 <! program_table_entry [27] $end
$var wire 1 =! program_table_entry [26] $end
$var wire 1 >! program_table_entry [25] $end
$var wire 1 ?! program_table_entry [24] $end
$var wire 1 @! program_table_entry [23] $end
$var wire 1 A! program_table_entry [22] $end
$var wire 1 B! program_table_entry [21] $end
$var wire 1 C! program_table_entry [20] $end
$var wire 1 D! program_table_entry [19] $end
$var wire 1 E! program_table_entry [18] $end
$var wire 1 F! program_table_entry [17] $end
$var wire 1 G! program_table_entry [16] $end
$var wire 1 H! program_table_entry [15] $end
$var wire 1 I! program_table_entry [14] $end
$var wire 1 J! program_table_entry [13] $end
$var wire 1 K! program_table_entry [12] $end
$var wire 1 L! program_table_entry [11] $end
$var wire 1 M! program_table_entry [10] $end
$var wire 1 N! program_table_entry [9] $end
$var wire 1 O! program_table_entry [8] $end
$var wire 1 P! program_table_entry [7] $end
$var wire 1 Q! program_table_entry [6] $end
$var wire 1 R! program_table_entry [5] $end
$var wire 1 S! program_table_entry [4] $end
$var wire 1 T! program_table_entry [3] $end
$var wire 1 U! program_table_entry [2] $end
$var wire 1 V! program_table_entry [1] $end
$var wire 1 W! program_table_entry [0] $end
$var reg 5 X! program_value_update [4:0] $end
$var reg 5 Y! progress_value_update [4:0] $end
$var reg 1 Z! last_column $end
$var reg 1 [! first_column $end
$var wire 1 \! program_table_we $end
$var wire 1 ]! program_table_index [1] $end
$var wire 1 ^! program_table_index [0] $end
$var wire 1 _! program_table_entry_update [33] $end
$var wire 1 `! program_table_entry_update [32] $end
$var wire 1 a! program_table_entry_update [31] $end
$var wire 1 b! program_table_entry_update [30] $end
$var wire 1 c! program_table_entry_update [29] $end
$var wire 1 d! program_table_entry_update [28] $end
$var wire 1 e! program_table_entry_update [27] $end
$var wire 1 f! program_table_entry_update [26] $end
$var wire 1 g! program_table_entry_update [25] $end
$var wire 1 h! program_table_entry_update [24] $end
$var wire 1 i! program_table_entry_update [23] $end
$var wire 1 j! program_table_entry_update [22] $end
$var wire 1 k! program_table_entry_update [21] $end
$var wire 1 l! program_table_entry_update [20] $end
$var wire 1 m! program_table_entry_update [19] $end
$var wire 1 n! program_table_entry_update [18] $end
$var wire 1 o! program_table_entry_update [17] $end
$var wire 1 p! program_table_entry_update [16] $end
$var wire 1 q! program_table_entry_update [15] $end
$var wire 1 r! program_table_entry_update [14] $end
$var wire 1 s! program_table_entry_update [13] $end
$var wire 1 t! program_table_entry_update [12] $end
$var wire 1 u! program_table_entry_update [11] $end
$var wire 1 v! program_table_entry_update [10] $end
$var wire 1 w! program_table_entry_update [9] $end
$var wire 1 x! program_table_entry_update [8] $end
$var wire 1 y! program_table_entry_update [7] $end
$var wire 1 z! program_table_entry_update [6] $end
$var wire 1 {! program_table_entry_update [5] $end
$var wire 1 |! program_table_entry_update [4] $end
$var wire 1 }! program_table_entry_update [3] $end
$var wire 1 ~! program_table_entry_update [2] $end
$var wire 1 !" program_table_entry_update [1] $end
$var wire 1 "" program_table_entry_update [0] $end
$var reg 3 #" fsm_cstate [2:0] $end
$var reg 3 $" fsm_nstate [2:0] $end
$var reg 1 %" rd_entry_vld $end
$var reg 1 &" rd_entry_vld_d1 $end
$var reg 1 '" sop $end
$var reg 1 (" sop_locked $end

$scope module U_program_table_0 $end
$var parameter 32 )" DEPTH $end
$var parameter 32 *" WIDTH $end
$var wire 1 _ clk $end
$var wire 1 \! we $end
$var wire 1 ]! addr [1] $end
$var wire 1 ^! addr [0] $end
$var wire 1 _! din [33] $end
$var wire 1 `! din [32] $end
$var wire 1 a! din [31] $end
$var wire 1 b! din [30] $end
$var wire 1 c! din [29] $end
$var wire 1 d! din [28] $end
$var wire 1 e! din [27] $end
$var wire 1 f! din [26] $end
$var wire 1 g! din [25] $end
$var wire 1 h! din [24] $end
$var wire 1 i! din [23] $end
$var wire 1 j! din [22] $end
$var wire 1 k! din [21] $end
$var wire 1 l! din [20] $end
$var wire 1 m! din [19] $end
$var wire 1 n! din [18] $end
$var wire 1 o! din [17] $end
$var wire 1 p! din [16] $end
$var wire 1 q! din [15] $end
$var wire 1 r! din [14] $end
$var wire 1 s! din [13] $end
$var wire 1 t! din [12] $end
$var wire 1 u! din [11] $end
$var wire 1 v! din [10] $end
$var wire 1 w! din [9] $end
$var wire 1 x! din [8] $end
$var wire 1 y! din [7] $end
$var wire 1 z! din [6] $end
$var wire 1 {! din [5] $end
$var wire 1 |! din [4] $end
$var wire 1 }! din [3] $end
$var wire 1 ~! din [2] $end
$var wire 1 !" din [1] $end
$var wire 1 "" din [0] $end
$var reg 34 +" dout [33:0] $end
$upscope $end
$upscope $end
$upscope $end
$enddefinitions $end
#0
$dumpvars
0%
0&
0(
bx )
x*
bx 5
x6
bx 7
bx 8
bx 9
bx :
x;
0<
0=
1N
xO
0Q
1a
0$!
0)!
bx *!
x+!
0,!
0-!
x.!
b0 /!
b0 0!
b0 1!
b0 2!
b0 3!
b0 4!
05!
bx X!
bx Y!
0Z!
0[!
b0 #"
b0 $"
x%"
x&"
0'"
0("
bx +"
b1 !
b100000 "
b100 #
b100 $
b100000 T
b100 U
b100010 V
b0 W
b1 X
b10 Y
b11 Z
b100 [
b101 \
b110 ]
b1 ^
b100 )"
b100010 *"
b0 R
b0 S
1'
0/
0.
0-
0,
0+
04
03
02
01
00
0E
0D
0C
0B
0A
0@
0?
0>
0I
0H
0G
0F
0J
0K
0L
0M
0P
0'!
0(!
xW!
xV!
xU!
xT!
xS!
xR!
xQ!
xP!
xO!
xN!
xM!
xL!
xK!
xJ!
xI!
xH!
xG!
xF!
xE!
xD!
xC!
xB!
xA!
x@!
x?!
x>!
x=!
x<!
x;!
x:!
x9!
x8!
x7!
x6!
x\!
x^!
x]!
x""
x!"
x~!
x}!
x|!
x{!
xz!
xy!
xx!
xw!
xv!
xu!
xt!
xs!
xr!
xq!
xp!
xo!
xn!
xm!
xl!
xk!
xj!
xi!
xh!
xg!
xf!
xe!
xd!
xc!
xb!
xa!
x`!
0_!
x&!
1%!
0#!
0"!
x!!
x~
x}
x|
x{
xz
xy
xx
xw
xv
xu
xt
xs
xr
xq
xp
xo
xn
xm
xl
xk
xj
xi
xh
xg
xf
xe
xd
xc
0b
0`
0_
$end
#1
1%
1_
0%"
0.!
0N
0%!
#2
0%
0_
#3
1%
1_
0&"
#4
0%
0_
#5
1%
1_
1&
1`
06
b0 5
b11101 7
b11101 8
b0 9
b0 :
0;
0h
0~
0}
0|
0{
0z
0y
0x
0w
0v
0u
0t
0s
1r
0q
1p
1o
1n
1m
0l
1k
1j
1i
0g
0f
0!!
0\!
0""
0!"
0~!
0}!
0|!
0{!
0z!
0y!
0x!
0w!
0v!
0u!
0t!
0s!
0r!
0q!
0p!
0o!
0i!
0h!
0g!
0f!
0e!
#6
0%
0_
#7
1%
1_
#8
0%
0_
#9
1%
1_
#10
0%
0_
#11
1%
1_
16
1h
1\!
0^!
0]!
1s!
1q!
1p!
1o!
1n!
0m!
1l!
1k!
1j!
1i!
1g!
1f!
1e!
1d!
0c!
1b!
1a!
1`!
#12
0%
0_
#13
1%
1_
06
0h
0\!
x^!
x]!
0s!
0q!
0p!
0o!
xn!
xm!
xl!
xk!
xj!
0i!
0g!
0f!
0e!
xd!
xc!
xb!
xa!
x`!
#14
0%
0_
#15
1%
1_
#16
0%
0_
#17
1%
1_
#18
0%
0_
#19
1%
1_
#20
0%
0_
#21
1%
1_
#22
0%
0_
#23
1%
1_
b1 5
b11110 7
b1 9
b1 :
1;
1~
1z
0m
1l
1g
1!!
#24
0%
0_
#25
1%
1_
#26
0%
0_
#27
1%
1_
#28
0%
0_
#29
1%
1_
16
1h
1\!
1^!
0]!
1""
1!"
1{!
1s!
1q!
1p!
1o!
1n!
0m!
1l!
1k!
1j!
1h!
1g!
1f!
1e!
0d!
1c!
1b!
1a!
1`!
#30
0%
0_
#31
1%
1_
06
0h
0\!
x^!
x]!
0""
0!"
0{!
0s!
0q!
0p!
0o!
xn!
xm!
xl!
xk!
xj!
0h!
0g!
0f!
0e!
xd!
xc!
xb!
xa!
x`!
#32
0%
0_
#33
1%
1_
#34
0%
0_
#35
1%
1_
#36
0%
0_
#37
1%
1_
#38
0%
0_
#39
1%
1_
#40
0%
0_
#41
1%
1_
1Q
0*
b0 )
0e
0d
0c
1(
1b
1'!
b1 $"
#42
0%
0_
#43
1%
1_
b1 R
b0 *!
0+!
1,!
b1 #"
0a
0(
0^!
0]!
0'
0b
0'!
#44
0%
0_
#45
1%
1_
0,!
b111011110111101111010000000000000 +"
bx /!
bx 0!
bx 1!
bx 2!
bx 4!
x5!
bx 3!
x("
1%"
xJ
xE
xD
xC
xB
xA
x@
x?
x>
xI
xH
xG
xF
x4
x3
x2
x1
x0
x""
x!"
x~!
x}!
x|!
x{!
xz!
xy!
xx!
xw!
xv!
xu!
xt!
xs!
xr!
xq!
xp!
xo!
xi!
xh!
xg!
xf!
xe!
x_!
x/
x.
x-
x,
x+
0W!
0V!
0U!
0T!
0S!
0R!
0Q!
0P!
0O!
0N!
0M!
0L!
0K!
1J!
0I!
1H!
1G!
1F!
1E!
0D!
1C!
1B!
1A!
1@!
0?!
1>!
1=!
1<!
1;!
0:!
19!
18!
17!
06!
b10 $"
#46
0%
0_
#47
1%
1_
b10 #"
0("
b11101 /!
b11101 0!
b11101 1!
b11101 2!
b0 4!
05!
b0 3!
0%"
1&"
0J
0E
0D
0C
0B
0A
0@
0?
0>
0I
0H
0G
0F
14
03
12
11
10
1/
0.
1-
1,
1+
0""
0!"
0~!
0}!
0|!
0{!
0z!
0y!
0x!
0w!
0v!
0u!
0t!
1s!
0r!
1q!
1p!
1o!
1i!
0h!
1g!
1f!
1e!
0_!
#48
0%
0_
#49
1%
1_
0&"
1-!
b11101 X!
b11101 Y!
1'"
1n!
0m!
1l!
1k!
1j!
1d!
0c!
1b!
1a!
1`!
#50
0%
0_
#51
1%
1_
1.!
1\!
#52
0%
0_
#53
1%
1_
#54
0%
0_
#55
1%
1_
#56
0%
0_
#57
1%
1_
#58
0%
0_
#59
1%
1_
#60
0%
0_
#61
1%
1_
#62
0%
0_
#63
1%
1_
#64
0%
0_
#65
1%
1_
#66
0%
0_
#67
1%
1_
#68
0%
0_
#69
1%
1_
#70
0%
0_
#71
1%
1_
#72
0%
0_
#73
1%
1_
#74
0%
0_
#75
1%
1_
1<
1"!
b11 $"
#76
0%
0_
#77
1%
1_
0<
0"!
b11 #"
1K
b100 $"
#78
0%
0_
#79
1%
1_
b100 #"
1("
xP
0K
1_!
#80
0%
0_
#81
1%
1_
0-!
#82
0%
0_
#83
1%
1_
0.!
b1111011110111101111010000000000000 +"
0\!
16!
#84
0%
0_
#85
1%
1_
#86
0%
0_
#87
1%
1_
#88
0%
0_
#89
1%
1_
#90
0%
0_
#91
1%
1_
#92
0%
0_
#93
1%
1_
1=
1#!
b101 $"
#94
0%
0_
#95
1%
1_
0=
0#!
b101 #"
0P
b0 $"
#96
0%
0_
#97
1%
1_
b1 )
1d
b0 #"
1(
1b
#98
0%
0_
#99
1%
1_
1a
1'
1'!
b1 $"
#100
0%
0_
#101
1%
1_
b1 S
b1 *!
1,!
b1 #"
0a
0(
1^!
0'
0b
0'!
#102
0%
0_
#103
1%
1_
0,!
b111101111011101111010000000100011 +"
1%"
1W!
1V!
1R!
0@!
1?!
0;!
1:!
06!
b10 $"
#104
0%
0_
#105
1%
1_
b10 #"
0("
b11110 /!
b11110 0!
b1 4!
15!
b1 3!
0%"
1&"
1J
1E
1I
0/
1.
1""
1!"
1{!
0i!
1h!
0_!
#106
0%
0_
#107
1%
1_
0&"
1-!
b11110 X!
0d!
1c!
#108
0%
0_
#109
1%
1_
1.!
1\!
#110
0%
0_
#111
1%
1_
#112
0%
0_
#113
1%
1_
#114
0%
0_
#115
1%
1_
#116
0%
0_
#117
1%
1_
#118
0%
0_
#119
1%
1_
#120
0%
0_
#121
1%
1_
#122
0%
0_
#123
1%
1_
#124
0%
0_
#125
1%
1_
#126
0%
0_
#127
1%
1_
#128
0%
0_
#129
1%
1_
#130
0%
0_
#131
1%
1_
#132
0%
0_
#133
1%
1_
1<
1"!
b11 $"
#134
0%
0_
#135
1%
1_
0<
0"!
b11 #"
1K
b100 $"
#136
0%
0_
#137
1%
1_
b100 #"
1("
xP
0K
1_!
#138
0%
0_
#139
1%
1_
0-!
#140
0%
0_
#141
1%
1_
0.!
b1111101111011101111010000000100011 +"
0\!
16!
#142
0%
0_
#143
1%
1_
#144
0%
0_
#145
1%
1_
#146
0%
0_
#147
1%
1_
#148
0%
0_
#149
1%
1_
#150
0%
0_
#151
1%
1_
1=
1#!
b101 $"
#152
0%
0_
#153
1%
1_
0=
0#!
b101 #"
0P
b0 $"
#154
0%
0_
#155
1%
1_
b0 )
0d
b0 #"
1(
1b
#156
0%
0_
#157
1%
1_
1a
1'
1'!
b1 $"
#158
0%
0_
#159
1%
1_
b10 R
b0 *!
1,!
b1 #"
0a
0(
0^!
0'
0b
0'!
#160
0%
0_
#161
1%
1_
0,!
b1111011110111101111010000000000000 +"
1%"
0W!
0V!
0R!
1@!
0?!
1;!
0:!
b10 $"
#162
0%
0_
#163
1%
1_
b10 #"
b11101 /!
b11101 0!
b0 4!
05!
b0 3!
0%"
1&"
0J
0E
0I
0""
0!"
0{!
1i!
0h!
1/
0.
#164
0%
0_
#165
1%
1_
0&"
1-!
b11101 X!
0'"
1d!
0c!
#166
0%
0_
#167
1%
1_
1.!
1\!
#168
0%
0_
#169
1%
1_
#170
0%
0_
#171
1%
1_
#172
0%
0_
#173
1%
1_
#174
0%
0_
#175
1%
1_
#176
0%
0_
#177
1%
1_
#178
0%
0_
#179
1%
1_
#180
0%
0_
#181
1%
1_
#182
0%
0_
#183
1%
1_
#184
0%
0_
#185
1%
1_
#186
0%
0_
#187
1%
1_
#188
0%
0_
#189
1%
1_
#190
0%
0_
#191
1%
1_
1<
1"!
b100 $"
#192
0%
0_
#193
1%
1_
0<
0"!
b100 #"
xP
#194
0%
0_
#195
1%
1_
0-!
#196
0%
0_
#197
1%
1_
0.!
0\!
#198
0%
0_
#199
1%
1_
#200
0%
0_
#201
1%
1_
#202
0%
0_
#203
1%
1_
#204
0%
0_
#205
1%
1_
#206
0%
0_
#207
1%
1_
#208
0%
0_
#209
1%
1_
1=
1#!
b101 $"
#210
0%
0_
#211
1%
1_
0=
0#!
b101 #"
0P
b0 $"
#212
0%
0_
#213
1%
1_
b1 )
1d
b0 #"
1(
1b
#214
0%
0_
#215
1%
1_
1a
1'
1'!
b1 $"
#216
0%
0_
#217
1%
1_
b10 S
b1 *!
1,!
b1 #"
0a
0(
1^!
0'
0b
0'!
#218
0%
0_
#219
1%
1_
0,!
b1111101111011101111010000000100011 +"
1%"
1W!
1V!
1R!
0@!
1?!
0;!
1:!
b10 $"
#220
0%
0_
#221
1%
1_
b10 #"
b11110 /!
b11110 0!
b1 4!
15!
b1 3!
0%"
1&"
1J
1E
1I
1""
1!"
1{!
0i!
1h!
0/
1.
#222
0%
0_
#223
1%
1_
0&"
1-!
b11110 X!
0d!
1c!
#224
0%
0_
#225
1%
1_
1.!
1\!
#226
0%
0_
#227
1%
1_
#228
0%
0_
#229
1%
1_
#230
0%
0_
#231
1%
1_
#232
0%
0_
#233
1%
1_
#234
0%
0_
#235
1%
1_
#236
0%
0_
#237
1%
1_
#238
0%
0_
#239
1%
1_
#240
0%
0_
#241
1%
1_
#242
0%
0_
#243
1%
1_
#244
0%
0_
#245
1%
1_
#246
0%
0_
#247
1%
1_
#248
0%
0_
#249
1%
1_
1<
1"!
b100 $"
#250
0%
0_
#251
1%
1_
0<
0"!
b100 #"
xP
#252
0%
0_
#253
1%
1_
0-!
#254
0%
0_
#255
1%
1_
0.!
0\!
#256
0%
0_
#257
1%
1_
#258
0%
0_
#259
1%
1_
#260
0%
0_
#261
1%
1_
#262
0%
0_
#263
1%
1_
#264
0%
0_
#265
1%
1_
#266
0%
0_
#267
1%
1_
1=
1#!
b101 $"
#268
0%
0_
#269
1%
1_
0=
0#!
b101 #"
0P
b0 $"
#270
0%
0_
#271
1%
1_
b0 )
0d
b0 #"
1(
1b
#272
0%
0_
#273
1%
1_
1a
1'
1'!
b1 $"
#274
0%
0_
#275
1%
1_
b11 R
b0 *!
1,!
b1 #"
0a
0(
0^!
0'
0b
0'!
#276
0%
0_
#277
1%
1_
0,!
b1111011110111101111010000000000000 +"
1%"
0W!
0V!
0R!
1@!
0?!
1;!
0:!
b10 $"
#278
0%
0_
#279
1%
1_
b10 #"
b11101 /!
b11101 0!
b0 4!
05!
b0 3!
0%"
1&"
0J
0E
0I
0""
0!"
0{!
1i!
0h!
1/
0.
#280
0%
0_
#281
1%
1_
0&"
1-!
b11101 X!
1d!
0c!
#282
0%
0_
#283
1%
1_
1.!
1\!
#284
0%
0_
#285
1%
1_
#286
0%
0_
#287
1%
1_
#288
0%
0_
#289
1%
1_
#290
0%
0_
#291
1%
1_
#292
0%
0_
#293
1%
1_
#294
0%
0_
#295
1%
1_
#296
0%
0_
#297
1%
1_
#298
0%
0_
#299
1%
1_
#300
0%
0_
#301
1%
1_
#302
0%
0_
#303
1%
1_
#304
0%
0_
#305
1%
1_
#306
0%
0_
#307
1%
1_
1<
1"!
b100 $"
#308
0%
0_
#309
1%
1_
0<
0"!
b100 #"
xP
#310
0%
0_
#311
1%
1_
0-!
#312
0%
0_
#313
1%
1_
0.!
0\!
#314
0%
0_
#315
1%
1_
#316
0%
0_
#317
1%
1_
#318
0%
0_
#319
1%
1_
#320
0%
0_
#321
1%
1_
#322
0%
0_
#323
1%
1_
#324
0%
0_
#325
1%
1_
1=
1#!
b101 $"
#326
0%
0_
#327
1%
1_
0=
0#!
b101 #"
0P
b0 $"
#328
0%
0_
#329
1%
1_
b1 )
1d
b0 #"
1(
1b
#330
0%
0_
#331
1%
1_
1a
1'
1'!
b1 $"
#332
0%
0_
#333
1%
1_
b11 S
b1 *!
1,!
b1 #"
0a
0(
1^!
0'
0b
0'!
#334
0%
0_
#335
1%
1_
0,!
b1111101111011101111010000000100011 +"
1%"
1W!
1V!
1R!
0@!
1?!
0;!
1:!
b10 $"
#336
0%
0_
#337
1%
1_
b10 #"
b11110 /!
b11110 0!
b1 4!
15!
b1 3!
0%"
1&"
1J
1E
1I
1""
1!"
1{!
0i!
1h!
0/
1.
#338
0%
0_
#339
1%
1_
0&"
1-!
b11110 X!
0d!
1c!
#340
0%
0_
#341
1%
1_
1.!
1\!
#342
0%
0_
#343
1%
1_
#344
0%
0_
#345
1%
1_
#346
0%
0_
#347
1%
1_
#348
0%
0_
#349
1%
1_
#350
0%
0_
#351
1%
1_
#352
0%
0_
#353
1%
1_
#354
0%
0_
#355
1%
1_
#356
0%
0_
#357
1%
1_
#358
0%
0_
#359
1%
1_
#360
0%
0_
#361
1%
1_
#362
0%
0_
#363
1%
1_
#364
0%
0_
#365
1%
1_
1<
1"!
b100 $"
#366
0%
0_
#367
1%
1_
0<
0"!
b100 #"
xP
#368
0%
0_
#369
1%
1_
0-!
#370
0%
0_
#371
1%
1_
0.!
0\!
#372
0%
0_
#373
1%
1_
#374
0%
0_
#375
1%
1_
#376
0%
0_
#377
1%
1_
#378
0%
0_
#379
1%
1_
#380
0%
0_
#381
1%
1_
#382
0%
0_
#383
1%
1_
1=
1#!
b101 $"
#384
0%
0_
#385
1%
1_
0=
0#!
b101 #"
0P
b0 $"
#386
0%
0_
#387
1%
1_
1*
b0 )
1e
0d
b0 #"
1(
1b
#388
0%
0_
#389
1%
1_
1a
1'
1'!
b1 $"
#390
0%
0_
#391
1%
1_
b0 R
b0 *!
1+!
1,!
b1 #"
0a
0(
0^!
0'
0b
0'!
#392
0%
0_
#393
1%
1_
0,!
b1111011110111101111010000000000000 +"
1%"
0W!
0V!
0R!
1@!
0?!
1;!
0:!
b10 $"
#394
0%
0_
#395
1%
1_
b10 #"
b11101 /!
b11101 0!
b0 4!
05!
b0 3!
0%"
1&"
0J
0E
0I
0""
0!"
0{!
1i!
0h!
1/
0.
#396
0%
0_
#397
1%
1_
0&"
1-!
#398
0%
0_
#399
1%
1_
1.!
1\!
#400
0%
0_
#401
1%
1_
#402
0%
0_
#403
1%
1_
b1111101110111101111010000000000000 +"
0;!
1:!
#404
0%
0_
#405
1%
1_
#406
0%
0_
#407
1%
1_
#408
0%
0_
#409
1%
1_
#410
0%
0_
#411
1%
1_
#412
0%
0_
#413
1%
1_
#414
0%
0_
#415
1%
1_
#416
0%
0_
#417
1%
1_
#418
0%
0_
#419
1%
1_
#420
0%
0_
#421
1%
1_
#422
0%
0_
#423
1%
1_
1<
1"!
b100 $"
#424
0%
0_
#425
1%
1_
0<
0"!
b100 #"
xP
#426
0%
0_
#427
1%
1_
0-!
#428
0%
0_
#429
1%
1_
0.!
0\!
#430
0%
0_
#431
1%
1_
#432
0%
0_
#433
1%
1_
#434
0%
0_
#435
1%
1_
#436
0%
0_
#437
1%
1_
#438
0%
0_
#439
1%
1_
#440
0%
0_
#441
1%
1_
1=
1#!
b101 $"
#442
0%
0_
#443
1%
1_
0=
0#!
b101 #"
1L
0P
b0 $"
#444
0%
0_
#445
1%
1_
b1 )
1d
b0 #"
1(
0L
1b
#446
0%
0_
#447
1%
1_
1a
1'
1'!
b1 $"
#448
0%
0_
#449
1%
1_
b0 S
b1 *!
1,!
b1 #"
0a
0(
1^!
0'
0b
0'!
#450
0%
0_
#451
1%
1_
0,!
b1111101111011101111010000000100011 +"
b11110 /!
1%"
0/
1.
1W!
1V!
1R!
0@!
1?!
b10 $"
#452
0%
0_
#453
1%
1_
b10 #"
b11110 0!
b1 4!
15!
b1 3!
0%"
1&"
1J
1E
1I
1""
1!"
1{!
0i!
1h!
#454
0%
0_
